<?xml version="1.0" encoding="UTF-8"?>
<svg width="24px" height="23px" viewBox="0 0 24 23" version="1.1" xmlns="http://www.w3.org/2000/svg" xmlns:xlink="http://www.w3.org/1999/xlink">
    <title>formularz</title>
    <g id="Projekty" stroke="none" stroke-width="1" fill="none" fill-rule="evenodd">
        <g id="04.kontakt" transform="translate(-379.000000, -545.000000)" fill="#163771">
            <g id="icons/ui/email-copy" transform="translate(379.500000, 545.000000)">
                <path d="M21.0336788,18.6875 C22.119648,18.6875 23,19.652886 23,20.84375 C23,22.034614 22.119648,23 21.0336788,23 L1.96632124,23 C0.880352007,23 0,22.034614 0,20.84375 C0,19.652886 0.880352007,18.6875 1.96632124,18.6875 L21.0336788,18.6875 Z M21.0336788,9.34375 C22.119648,9.34375 23,10.309136 23,11.5 C23,12.690864 22.119648,13.65625 21.0336788,13.65625 L1.96632124,13.65625 C0.880352007,13.65625 0,12.690864 0,11.5 C0,10.309136 0.880352007,9.34375 1.96632124,9.34375 L21.0336788,9.34375 Z M21.0336788,0 C22.119648,0 23,0.965386008 23,2.15625 C23,3.34711399 22.119648,4.3125 21.0336788,4.3125 L1.96632124,4.3125 C0.880352007,4.3125 0,3.34711399 0,2.15625 C0,0.965386008 0.880352007,0 1.96632124,0 L21.0336788,0 Z" id="Combined-Shape"></path>
            </g>
        </g>
    </g>
</svg>